Exploratory Data Analysis
…
Creating factors for the three datasets

math_data <- math_data |>
  mutate(guardianF = as.factor(guardian), # who's their parent
         internetF = as.factor(internet), # access to internet at home
         healthF = as.factor(health), # current health status
         higherF = as.factor(higher)) # wants to take higher education

print(math_data)

# A tibble: 395 × 37
   school sex     age address famsize Pstatus  Medu  Fedu Mjob     Fjob   reason
   <chr>  <chr> <dbl> <chr>   <chr>   <chr>   <dbl> <dbl> <chr>    <chr>  <chr> 
 1 GP     F        18 U       GT3     A           4     4 at_home  teach… course
 2 GP     F        17 U       GT3     T           1     1 at_home  other  course
 3 GP     F        15 U       LE3     T           1     1 at_home  other  other 
 4 GP     F        15 U       GT3     T           4     2 health   servi… home  
 5 GP     F        16 U       GT3     T           3     3 other    other  home  
 6 GP     M        16 U       LE3     T           4     3 services other  reput…
 7 GP     M        16 U       LE3     T           2     2 other    other  home  
 8 GP     F        17 U       GT3     A           4     4 other    teach… home  
 9 GP     M        15 U       LE3     A           3     2 services other  home  
10 GP     M        15 U       GT3     T           3     4 other    other  home  
# ℹ 385 more rows
# ℹ 26 more variables: guardian <chr>, traveltime <dbl>, studytime <dbl>,
#   failures <dbl>, schoolsup <chr>, famsup <chr>, paid <chr>,
#   activities <chr>, nursery <chr>, higher <chr>, internet <chr>,
#   romantic <chr>, famrel <dbl>, freetime <dbl>, goout <dbl>, Dalc <dbl>,
#   Walc <dbl>, health <dbl>, absences <dbl>, G1 <dbl>, G2 <dbl>, G3 <dbl>,
#   guardianF <fct>, internetF <fct>, healthF <fct>, higherF <fct>

port_data <- port_data |>
  mutate(guardianF = as.factor(guardian), # who's their parent
         internetF = as.factor(internet), # access to internet at home
         healthF = as.factor(health), # current health status
         higherF = as.factor(higher)) # wants to take higher education

print(port_data)

# A tibble: 649 × 37
   school sex     age address famsize Pstatus  Medu  Fedu Mjob     Fjob   reason
   <chr>  <chr> <dbl> <chr>   <chr>   <chr>   <dbl> <dbl> <chr>    <chr>  <chr> 
 1 GP     F        18 U       GT3     A           4     4 at_home  teach… course
 2 GP     F        17 U       GT3     T           1     1 at_home  other  course
 3 GP     F        15 U       LE3     T           1     1 at_home  other  other 
 4 GP     F        15 U       GT3     T           4     2 health   servi… home  
 5 GP     F        16 U       GT3     T           3     3 other    other  home  
 6 GP     M        16 U       LE3     T           4     3 services other  reput…
 7 GP     M        16 U       LE3     T           2     2 other    other  home  
 8 GP     F        17 U       GT3     A           4     4 other    teach… home  
 9 GP     M        15 U       LE3     A           3     2 services other  home  
10 GP     M        15 U       GT3     T           3     4 other    other  home  
# ℹ 639 more rows
# ℹ 26 more variables: guardian <chr>, traveltime <dbl>, studytime <dbl>,
#   failures <dbl>, schoolsup <chr>, famsup <chr>, paid <chr>,
#   activities <chr>, nursery <chr>, higher <chr>, internet <chr>,
#   romantic <chr>, famrel <dbl>, freetime <dbl>, goout <dbl>, Dalc <dbl>,
#   Walc <dbl>, health <dbl>, absences <dbl>, G1 <dbl>, G2 <dbl>, G3 <dbl>,
#   guardianF <fct>, internetF <fct>, healthF <fct>, higherF <fct>
…
print(combined_data)

# A tibble: 320 × 42
   school sex     age address famsize Pstatus Medu  Fedu  Mjob     Fjob   reason
   <chr>  <chr> <dbl> <chr>   <chr>   <chr>   <chr> <chr> <chr>    <chr>  <chr> 
 1 GP     F        18 U       GT3     A       4     4     at_home  teach… course
 2 GP     F        17 U       GT3     T       1     1     at_home  other  course
 3 GP     F        15 U       GT3     T       4     2     health   servi… home  
 4 GP     F        16 U       GT3     T       3     3     other    other  home  
 5 GP     M        16 U       LE3     T       4     3     services other  reput…
 6 GP     M        16 U       LE3     T       2     2     other    other  home  
 7 GP     F        17 U       GT3     A       4     4     other    teach… home  
 8 GP     M        15 U       LE3     A       3     2     services other  home  
 9 GP     M        15 U       GT3     T       3     4     other    other  home  
10 GP     F        15 U       GT3     T       4     4     teacher  health reput…
# ℹ 310 more rows
# ℹ 31 more variables: guardian <chr>, traveltime <chr>, studytime <chr>,
#   failures <chr>, schoolsup <chr>, famsup <chr>, paid.x <chr>,
#   activities <chr>, nursery <chr>, higher <chr>, internet <chr>,
#   romantic <chr>, famrel <chr>, freetime <chr>, goout <chr>, Dalc <chr>,
#   Walc <chr>, health <dbl>, absences.x <dbl>, G1.x <dbl>, G2.x <dbl>,
#   G3.x <dbl>, paid.y <chr>, absences.y <dbl>, G1.y <dbl>, G2.y <dbl>, …
…
